{
  "info": {
    "count": 100,
    "pages": 30,
    "next": "https://rickandmortyapi.com/api/character/?page=1",
    "prev": null
  },
  "results": [
    {
      "id": 1,
      "name": null,
      "status": true,
      "species": "Human",
      "type": "",
      "gender": null,
      "origin": {
        "name": "Earth (C-137)",
        "url": "https://rickandmortyapi.com/api/location/1"
      },
      "location": {
        "name": "Citadel of Ricks",
        "url": "https://rickandmortyapi.com/api/location/3"
      },
      "image": "https://rickandmortyapi.com/api/character/avatar/1.jpeg",
      "episode": [
        "https://rickandmortyapi.com/api/episode/1",
      ],
      "url": "https://rickandmortyapi.com/api/character/1",
      "created": "2017-11-04T18:48:46.250Z"
    }
  ]
}